{
  "images" : [
    {
      "idiom" : "universal",
      "filename" : "28080195_1742330962484332_863424390_o.png",
      "scale" : "1x"
    },
    {
      "idiom" : "universal",
      "filename" : "28080195_1742330962484332_863424390_o-1.png",
      "scale" : "2x"
    },
    {
      "idiom" : "universal",
      "filename" : "28080195_1742330962484332_863424390_o-2.png",
      "scale" : "3x"
    }
  ],
  "info" : {
    "version" : 1,
    "author" : "xcode"
  }
}